{
  "swagger": "2.0",
  "info": {
    "title": "user-service.proto",
    "version": "version not set"
  },
  "tags": [
    {
      "name": "UserService"
    }
  ],
  "consumes": [
    "application/json"
  ],
  "produces": [
    "application/json"
  ],
  "paths": {
    "/v1/user-service/user": {
      "post": {
        "operationId": "UserService_GetUsers",
        "responses": {
          "200": {
            "description": "A successful response.",
            "schema": {
              "$ref": "#/definitions/user_apiGetUsersResponse"
            }
          },
          "default": {
            "description": "An unexpected error response.",
            "schema": {
              "$ref": "#/definitions/rpcStatus"
            }
          }
        },
        "parameters": [
          {
            "name": "body",
            "in": "body",
            "required": true,
            "schema": {
              "type": "object",
              "properties": {}
            }
          }
        ],
        "tags": [
          "UserService"
        ]
      }
    }
  },
  "definitions": {
    "protobufAny": {
      "type": "object",
      "properties": {
        "@type": {
          "type": "string"
        }
      },
      "additionalProperties": {}
    },
    "rpcStatus": {
      "type": "object",
      "properties": {
        "code": {
          "type": "integer",
          "format": "int32"
        },
        "message": {
          "type": "string"
        },
        "details": {
          "type": "array",
          "items": {
            "type": "object",
            "$ref": "#/definitions/protobufAny"
          }
        }
      }
    },
    "user_apiGetUsersResponse": {
      "type": "object",
      "properties": {
        "users": {
          "type": "array",
          "items": {
            "type": "object",
            "$ref": "#/definitions/user_apiUser"
          }
        }
      }
    },
    "user_apiUser": {
      "type": "object",
      "properties": {
        "name": {
          "type": "string"
        },
        "cars": {
          "type": "array",
          "items": {
            "type": "string"
          }
        }
      }
    }
  }
}
